Lecture 19 - Note | Byeong-Hak Choe
…
library(tidyverse)
library(nycflights13)
flights <- nycflights13::flights

??flights

flights |> 
  select(dep_time) |> 
  mutate(
    hour = dep_time %/% 100,
    minute = dep_time %% 100
    )

# A tibble: 336,776 × 3
   dep_time  hour minute
      <int> <dbl>  <dbl>
 1      517     5     17
 2      533     5     33
 3      542     5     42
 4      544     5     44
 5      554     5     54
 6      554     5     54
 7      555     5     55
 8      557     5     57
 9      557     5     57
10      558     5     58
# ℹ 336,766 more rows

flights |> 
  select(year:day, ends_with("delay"), air_time) |> 
  mutate(gain = dep_delay - arr_delay,
         hours = air_time / 60,
         gain_per_hour = gain / hours ) 

# A tibble: 336,776 × 9
    year month   day dep_delay arr_delay air_time  gain hours gain_per_hour
   <int> <int> <int>     <dbl>     <dbl>    <dbl> <dbl> <dbl>         <dbl>
 1  2013     1     1         2        11      227    -9 3.78          -2.38
 2  2013     1     1         4        20      227   -16 3.78          -4.23
 3  2013     1     1         2        33      160   -31 2.67         -11.6 
 4  2013     1     1        -1       -18      183    17 3.05           5.57
 5  2013     1     1        -6       -25      116    19 1.93           9.83
 6  2013     1     1        -4        12      150   -16 2.5           -6.4 
 7  2013     1     1        -5        19      158   -24 2.63          -9.11
 8  2013     1     1        -3       -14       53    11 0.883         12.5 
 9  2013     1     1        -3        -8      140     5 2.33           2.14
10  2013     1     1        -2         8      138   -10 2.3           -4.35
# ℹ 336,766 more rows

flights |> 
  mutate(
    gain = dep_delay - arr_delay,
    speed = distance / air_time * 60,
    .before = dep_time
  )

# A tibble: 336,776 × 21
    year month   day  gain speed dep_time sched_dep_time dep_delay arr_time
   <int> <int> <int> <dbl> <dbl>    <int>          <int>     <dbl>    <int>
 1  2013     1     1    -9  370.      517            515         2      830
 2  2013     1     1   -16  374.      533            529         4      850
 3  2013     1     1   -31  408.      542            540         2      923
 4  2013     1     1    17  517.      544            545        -1     1004
 5  2013     1     1    19  394.      554            600        -6      812
 6  2013     1     1   -16  288.      554            558        -4      740
 7  2013     1     1   -24  404.      555            600        -5      913
 8  2013     1     1    11  259.      557            600        -3      709
 9  2013     1     1     5  405.      557            600        -3      838
10  2013     1     1   -10  319.      558            600        -2      753
# ℹ 336,766 more rows
# ℹ 12 more variables: sched_arr_time <int>, arr_delay <dbl>, carrier <chr>,
#   flight <int>, tailnum <chr>, origin <chr>, dest <chr>, air_time <dbl>,
#   distance <dbl>, hour <dbl>, minute <dbl>, time_hour <dttm>

flights |> 
  mutate(
    gain = dep_delay - arr_delay,
    speed = distance / air_time * 60,
    .after = day  
  )

# A tibble: 336,776 × 21
    year month   day  gain speed dep_time sched_dep_time dep_delay arr_time
   <int> <int> <int> <dbl> <dbl>    <int>          <int>     <dbl>    <int>
 1  2013     1     1    -9  370.      517            515         2      830
 2  2013     1     1   -16  374.      533            529         4      850
 3  2013     1     1   -31  408.      542            540         2      923
 4  2013     1     1    17  517.      544            545        -1     1004
 5  2013     1     1    19  394.      554            600        -6      812
 6  2013     1     1   -16  288.      554            558        -4      740
 7  2013     1     1   -24  404.      555            600        -5      913
 8  2013     1     1    11  259.      557            600        -3      709
 9  2013     1     1     5  405.      557            600        -3      838
10  2013     1     1   -10  319.      558            600        -2      753
# ℹ 336,766 more rows
# ℹ 12 more variables: sched_arr_time <int>, arr_delay <dbl>, carrier <chr>,
#   flight <int>, tailnum <chr>, origin <chr>, dest <chr>, air_time <dbl>,
#   distance <dbl>, hour <dbl>, minute <dbl>, time_hour <dttm>
…
